<?xml version="1.0" encoding="UTF-8" standalone="no"?>
<svg
   xmlns:dc="http://purl.org/dc/elements/1.1/"
   xmlns:cc="http://creativecommons.org/ns#"
   xmlns:rdf="http://www.w3.org/1999/02/22-rdf-syntax-ns#"
   xmlns:svg="http://www.w3.org/2000/svg"
   xmlns="http://www.w3.org/2000/svg"
   width="138.05435"
   height="181.03583"
   viewBox="0 0 138.05436 181.03582"
   id="svg4249"
   version="1.1">
  <defs
     id="defs4251">
    <clipPath
       id="clipPath4150"
       clipPathUnits="userSpaceOnUse">
      <path
         id="path4152"
         d="m 0,1000 1000,0 L 1000,0 0,0 0,1000 Z" />
    </clipPath>
  </defs>
  <metadata
     id="metadata4254">
    <rdf:RDF>
      <cc:Work
         rdf:about="">
        <dc:format>image/svg+xml</dc:format>
        <dc:type
           rdf:resource="http://purl.org/dc/dcmitype/StillImage" />
        <dc:title></dc:title>
      </cc:Work>
    </rdf:RDF>
  </metadata>
  <g
     transform="matrix(1.1586708,0,0,1.1586708,-29.984835,-982.05073)"
     id="layer1-3">
    <g
       transform="matrix(0.13217249,0,0,0.13217249,178.67657,947.73626)"
       id="g4458">
      <path
         style="fill:#000000"
         d="m -1142.7838,410.36996 c 0.2708,-0.51562 9.4447,-20.52214 20.3863,-44.45891 l 19.8939,-43.5214 7.0297,7.44929 c 19.0098,20.14449 18.8039,39.63928 -0.6042,57.20261 -7.6684,6.93952 -23.5486,15.86883 -37.6839,21.18932 -8.8778,3.3416 -9.7637,3.55165 -9.0218,2.13909 z"
         id="path4430" />
      <path
         style="fill:#000000"
         d="m -1100.6286,321.8337 c 0,-0.60878 86.8287,-71.02215 138.74996,-112.51869 79.23027,-63.32245 124.38679,-97.77915 142.13648,-108.45729 23.4882,-14.130407 40.53667,-47.54967 74.05957,-145.175257 18.23506,-53.104237 34.07789,-78.589073 56.33764,-90.625003 7.54538,-4.07981 8.85035,-4.3744 19.34131,-4.36604 9.18959,0.007 12.19651,0.51359 16.41806,2.76423 7.5157,4.00685 12.51701,9.54065 17.41775,19.27222 11.10287,22.047331 10.45994,44.22523 -2.05765,70.979643 -4.76875,10.192475 -28.48221,55.8509999 -45.821,88.22495 -28.60521,53.40994 -58.15202,91.554437 -85.34671,110.181337 -5.16425,3.53724 -73.22675,38.8956 -151.25,78.57415 -78.02325,39.67854 -150.43861,76.5062 -160.92291,81.83924 -10.4844,5.33303 -19.0625,9.52097 -19.0625,9.30651 z"
         id="path4428" />
      <path
         style="fill:#000000;fill-opacity:1;fill-rule:evenodd;stroke:none;stroke-width:1px;stroke-linecap:butt;stroke-linejoin:miter;stroke-opacity:1"
         d="m -713.76537,-395.90486 c 48.07479,113.34279 47.40818,112.14405 96.77019,248.1531 25.90381,-54.60777 46.53573,-111.95928 66.36655,-164.8659 -53.60943,-29.2519 -109.14423,-54.77605 -163.13674,-83.2872 z"
         id="path4432" />
      <path
         style="fill:#000000"
         d="m -416.47731,139.08761 c -38.18138,-11.20904 -45.0648,-13.57846 -44.20349,-15.21581 2.24268,-4.26333 32.48267,-137.836637 43.02911,-190.064337 9.71315,-48.101053 14.34645,-81.250003 11.3565,-81.250003 -2.78485,0 -44.74136,24.24428 -72.05119,41.63427 -30.56794,19.464646 -41.82906,24.569508 -59.8318,27.122758 -16.49296,2.339125 -31.30589,-1.693875 -41.82086,-11.386237 -12.89125,-11.882751 -15.75555,-24.304901 -9.00444,-39.051281 4.44564,-9.71056 18.43854,-24.06003 32.5524,-33.3819 26.31586,-17.38102 86.79038,-43.47767 129.77165,-56.00055 27.35122,-7.96895 43.04178,-10.67598 62.30079,-10.74851 26.28424,-0.099 31.78601,3.15824 33.33395,19.73469 3.1897,34.15776 -28.08845,122.921588 -89.26601,253.326763 -7.90199,16.84375 -18.7999,39.47776 -24.21759,50.2978 -5.4177,10.820037 -9.85035,20.032297 -9.85035,20.471697 0,0.4394 2.47533,-1.48278 5.50074,-4.2715 8.60756,-7.93418 15.03111,-10.772887 24.49926,-10.826757 10.57456,-0.0601 19.73371,4.319857 29.83891,14.269377 11.0897,10.91885 29.11129,38.97169 24.86965,38.71268 -0.87096,-0.0531 -21.93421,-6.0711 -46.80723,-13.37315 z"
         id="path4426" />
      <path
         style="fill:#000000"
         d="m -979.87389,-87.755037 c -4.58108,-7.84905 -5.75475,-11.6511 -5.75475,-18.642463 0,-11.5179 6.04809,-19.02646 20.45938,-25.39981 7.37889,-3.2633 27.66111,-7.94142 28.92982,-6.67269 0.8245,0.8245 -38.1915,55.916063 -39.64901,55.985376 -0.48664,0.02313 -2.28009,-2.348538 -3.98544,-5.270413 z"
         id="path4424" />
      <path
         style="fill:#000000"
         d="m -926.21635,-157.44254 c 27.94891,-56.0536 71.10351,-133.93759 98.14501,-177.1289 25.19811,-40.24701 46.52451,-67.32562 57.33394,-72.7982 4.11646,-2.08407 22.24015,-5.90596 23.17501,-4.88711 0.58411,0.6366 23.18375,45.95258 23.18375,46.48724 0,0.24712 -5.73305,0.7986 -12.74011,1.22548 -9.91537,0.60407 -13.19916,1.26953 -14.8105,3.00133 -1.13873,1.22383 -42.18239,50.88141 -91.20815,110.35016 -49.02576,59.46875 -89.66769,108.6875 -90.31537,109.375 -0.6477,0.6875 2.60868,-6.34375 7.23642,-15.625 z"
         id="path4422" />
      <path
         style="fill:#000000"
         d="m -532.50364,-339.22265 c -50.95155,-17.25818 -142.23571,-58.95581 -181.875,-83.07856 -16.11296,-9.80565 -24.9074,-20.8907 -24.97255,-31.47695 -0.11462,-18.63363 13.81923,-32.37484 32.85652,-32.40217 12.91835,-0.0185 17.82883,1.65049 49.61603,16.86405 16.15625,7.73248 48.21875,22.35647 71.25,32.49775 23.03125,10.14128 49.61435,21.9724 59.07356,26.29139 l 17.19855,7.8527 88.18604,-94.88405 c 48.50232,-52.18622 88.44193,-94.88405 88.75466,-94.88405 2.53668,0 -55.22484,104.89615 -82.59814,150 -35.5016,58.49709 -68.27418,100.94233 -83.30358,107.89018 -7.20962,3.33288 -12.82175,2.5662 -34.18609,-4.67029 z"
         id="path4414" />
      <path
         style="fill:#000000"
         d="m -526.25364,-429.55884 c -3.4375,-1.78745 -32.96875,-15.45546 -65.625,-30.37337 -86.65066,-39.58344 -93.75,-42.91209 -93.75,-43.95632 0,-1.33843 14.82299,-5.57271 28.125,-8.03408 14.77394,-2.73373 63.95993,-3.8963 78.4165,-1.85347 32.78233,4.63243 53.38022,16.2702 62.82145,35.49403 5.63253,11.4687 7.37197,21.01174 6.41871,35.21451 -0.69368,10.33524 -1.03568,11.47819 -4.20587,14.05629 -4.2591,3.46364 -4.50815,3.45246 -12.20079,-0.54759 z"
         id="path4410" />
      <path
         style="fill:#000000"
         d="m -599.24785,-540.67069 c -31.86801,-8.56979 -73.60769,-57.48446 -85.20395,-99.8504 -7.98788,-29.18298 1.93697,-61.12224 25.78309,-82.97288 24.64677,-22.58429 59.36888,-27.68351 89.12869,-13.08925 13.93522,6.83385 29.04341,22.1919 36.04458,36.64068 6.90135,14.24276 9.1168,24.09617 9.1168,40.54781 0,24.27617 -8.65292,58.24808 -21.0532,82.65615 -7.66865,15.09458 -9.54031,17.9017 -17.27528,25.90943 -10.85562,11.23842 -21.51013,14.20042 -36.54073,10.15846 z"
         id="path4408" />
      <path
         style="fill:#000000"
         d="m -329.82229,-603.93434 c -0.42473,-1.58576 -0.7799,-6.50247 -0.78929,-10.92605 -0.0325,-15.34756 7.41543,-23.77681 23.29465,-26.36366 7.7734,-1.26634 24.96991,0.2189 34.50788,2.98039 l 5.16529,1.49548 -28.7996,17.11805 c -15.83979,9.41494 -29.65622,17.44677 -30.70317,17.84852 -1.27256,0.48832 -2.15953,-0.22528 -2.67576,-2.15273 z"
         id="path4404" />
    </g>
    <g
       transform="matrix(0.58602869,0,0,0.58602869,-503.52109,1132.6658)"
       id="g4344-5">
      <path
         d="m 1025.0354,-375.64447 c 0,-6.75401 -5.4278,-12.22947 -12.1222,-12.22947 -6.696,0 -12.1239,5.47546 -12.1239,12.22947 0,6.75237 5.4279,12.22715 12.1239,12.22715 6.6944,0 12.1222,-5.47478 12.1222,-12.22715"
         style="fill:#f1495f;fill-opacity:1;fill-rule:nonzero;stroke:none"
         id="path4160-6" />
      <path
         d="m 1031.4306,-375.64447 c 0,-10.31718 -8.291,-18.67995 -18.5173,-18.67995 -10.228,0 -18.51967,8.36277 -18.51967,18.67995 0,10.31486 8.29167,18.67763 18.51967,18.67763 10.2263,0 18.5173,-8.36277 18.5173,-18.67763 z"
         style="fill:none;stroke:#f14e55;stroke-width:4.10362005;stroke-linecap:butt;stroke-linejoin:miter;stroke-miterlimit:10;stroke-dasharray:none;stroke-opacity:1"
         id="path4164-2" />
      <path
         d="m 1038.902,-375.64447 c 0,-14.47976 -11.6369,-26.21557 -25.9888,-26.21557 -14.35528,0 -25.99041,11.73581 -25.99041,26.21557 0,14.47785 11.63513,26.21311 25.99041,26.21311 14.3519,0 25.9888,-11.73526 25.9888,-26.21311 z"
         style="fill:none;stroke:#f14e55;stroke-width:2.05181003;stroke-linecap:butt;stroke-linejoin:miter;stroke-miterlimit:10;stroke-dasharray:none;stroke-opacity:1"
         id="path4168-9" />
    </g>
  </g>
</svg>
