<?xml version="1.0" encoding="UTF-8" standalone="no"?>
<svg
   xmlns:dc="http://purl.org/dc/elements/1.1/"
   xmlns:cc="http://creativecommons.org/ns#"
   xmlns:rdf="http://www.w3.org/1999/02/22-rdf-syntax-ns#"
   xmlns:svg="http://www.w3.org/2000/svg"
   xmlns="http://www.w3.org/2000/svg"
   xmlns:sodipodi="http://sodipodi.sourceforge.net/DTD/sodipodi-0.dtd"
   xmlns:inkscape="http://www.inkscape.org/namespaces/inkscape"
   width="138.05435"
   height="181.03583"
   viewBox="0 0 138.05436 181.03582"
   id="svg4249"
   version="1.1"
   inkscape:version="0.91 r13725"
   sodipodi:docname="sport.svg">
  <sodipodi:namedview
     pagecolor="#ffffff"
     bordercolor="#666666"
     borderopacity="1"
     objecttolerance="10"
     gridtolerance="10"
     guidetolerance="10"
     inkscape:pageopacity="0"
     inkscape:pageshadow="2"
     inkscape:window-width="2560"
     inkscape:window-height="1376"
     id="namedview4157"
     showgrid="false"
     inkscape:zoom="2.3181482"
     inkscape:cx="-82.816478"
     inkscape:cy="8.3660313"
     inkscape:window-x="0"
     inkscape:window-y="27"
     inkscape:window-maximized="1"
     inkscape:current-layer="svg4249" />
  <defs
     id="defs4251">
    <clipPath
       id="clipPath4150"
       clipPathUnits="userSpaceOnUse">
      <path
         id="path4152"
         d="m 0,1000 1000,0 L 1000,0 0,0 0,1000 Z" />
    </clipPath>
  </defs>
  <metadata
     id="metadata4254">
    <rdf:RDF>
      <cc:Work
         rdf:about="">
        <dc:format>image/svg+xml</dc:format>
        <dc:type
           rdf:resource="http://purl.org/dc/dcmitype/StillImage" />
        <dc:title />
      </cc:Work>
    </rdf:RDF>
  </metadata>
  <g
     id="g4289"
     transform="matrix(0.13531692,0,0,0.13531692,196.07877,66.314255)">
    <path
       id="path4287"
       d="m -1020.3578,678.74783 c -24.4062,-7.17699 -44.5505,-13.05289 -44.7651,-13.05757 -1.1321,-0.0246 8.5542,-12.13216 12.7091,-15.8859 19.4673,-17.58749 42.4475,-12.51641 62.54987,13.80293 6.585,8.62155 17.0061,25.39175 17.0061,27.36714 0,1.66195 -2.1676,1.104 -47.49997,-12.2266 z"
       style="fill:#000000"
       inkscape:connector-curvature="0" />
    <path
       id="path4285"
       d="m -1062.3917,648.80676 c 1.1674,-5.77532 13.7962,-103.76223 19.4129,-150.62501 10.5539,-88.05562 15.057,-134.45244 15.4752,-159.444 l 0.2708,-16.18101 -6.4884,-21.25001 c -3.5686,-11.6875 -11.5843,-37.17416 -17.8125,-56.63703 -6.2282,-19.46286 -11.3241,-36.06936 -11.3241,-36.90331 0,-0.83395 6.0469,-4.42354 13.4375,-7.97685 7.3907,-3.55331 25.25,-12.67094 39.6875,-20.26139 14.43747,-7.59046 26.59787,-13.81109 27.02297,-13.82363 0.4251,-0.0125 1.0821,2.08658 1.4601,4.6647 0.378,2.57813 3.5222,21.56251 6.987,42.18751 14.1929,84.48532 16.9117,110.99007 13.3353,130.00001 -8.4241,44.77599 -41.64927,148.21805 -88.10487,274.30249 -12.3148,33.42324 -14.9145,39.64007 -13.3594,31.94753 z"
       style="fill:#000000"
       inkscape:connector-curvature="0" />
    <path
       id="path4283"
       d="m -1400.7378,285.29041 c -9.2813,-5.61854 -12.1898,-15.57265 -7.5004,-25.66977 2.0881,-4.49606 17.5635,-20.92254 18.6693,-19.81671 0.5463,0.54631 -2.6478,35.96859 -3.996,44.3153 -0.3609,2.23438 -1.0526,4.05962 -1.537,4.0561 -0.4845,-0.004 -3.0206,-1.30173 -5.6359,-2.88492 z"
       style="fill:#000000"
       inkscape:connector-curvature="0" />
    <path
       id="path4281"
       d="m -1387.7525,235.27518 c -0.058,-0.56735 2.9587,-12.37985 6.7036,-26.25 10.706,-39.65203 18.3904,-69.15938 35.14,-134.933401 8.5666,-33.64009 17.3665,-66.5646304 19.5553,-73.16563039 8.4106,-25.36413961 58.4814,-120.51049861 81.1974,-154.29437861 14.0201,-20.85099 25.5679,-30.95007 35.39,-30.95007 6.2419,0 9.9381,2.43772 13.1032,8.64177 3.3463,6.55933 5.4667,24.35122 4.7722,40.04357 -0.4774,10.78865 -1.2621,14.91519 -4.3106,22.66862 -4.5146,11.4821 -14.0492,25.894169 -29.2885,44.271049 -14.5994,17.60521 -36.1681,50.09127 -52.2851,78.75 -22.5152,40.03601 -59.8026,115.815071 -92.5676,188.125021 -6.6976,14.78125 -13.3311,29.40625 -14.741,32.5 -1.41,3.09375 -2.6109,5.1608 -2.6689,4.59345 z"
       style="fill:#000000"
       inkscape:connector-curvature="0" />
    <path
       sodipodi:nodetypes="sssssccsscscsssscs"
       inkscape:connector-curvature="0"
       id="path4279"
       d="m -1107.6743,191.83793 c -11.767,-2.31357 -26.3167,-14.66404 -34.026,-28.88272 -3.8707,-7.13903 -4.2804,-8.86003 -4.2608,-17.89849 0.017,-7.80984 0.6089,-11.09507 2.7033,-15 9.4447,-17.60913 28.4066,-29.26563 85.5536,-52.592392 32.4437,-13.243139 119.23307,-45.532619 122.38507,-45.532619 14.09666,-7.061973 62.87838,-22.4967658 126.52402,-17.40932 l 5.15617,0.59415 c 2.8359,0.32677 15.84367,1.74497 28.90617,3.15156 48.48492,5.22088 194.48413,26.807095 200.16252,29.03445 4.27727,0.711658 44.17168,5.634612 32.35388,6.541628 l -34.38506,2.639052 -27.19066,1.52499 c -114.66484,6.43098 -227.47698,15.75313 -252.19068,20.839585 -10.14634,2.088262 -23.88789,8.905713 -91.73516,45.511486 -58.14807,31.37278 -109.51627,57.75391 -120.76487,62.02108 -8.789,3.33417 -24.7968,6.79488 -30.625,6.62079 -1.7187,-0.0514 -5.5737,-0.5748 -8.5665,-1.16323 z"
       style="fill:#000000;fill-opacity:1" />
    <path
       id="path4275"
       d="m -1087.5577,36.624979 c -43.9667,-73.80988 -77.197,-141.967089 -87.6102,-179.693279 -3.9247,-14.21902 -5.3636,-28.69327 -3.8945,-39.17687 3.9858,-28.44322 25.1761,-42.43019 76.2046,-50.29974 17.1464,-2.64429 43.8809,-2.97569 54.375,-0.67402 24.7345,5.42497 40.1966,21.26199 48.353,49.52563 2.55167,8.84197 2.88507,12.67793 2.87907,33.125 -0.01,21.88395 -0.2219,23.97641 -4.01587,38.98968 -10.1665,40.230299 -27.8554,85.529229 -57.607,147.524549 -5.5136,11.48906 -10.8298,22.03852 -11.8137,23.44325 -1.6802,2.3989 -2.7051,1.01594 -16.8704,-22.7642 z"
       style="fill:#000000"
       inkscape:connector-curvature="0" />
    <path
       sodipodi:nodetypes="cccsscscc"
       inkscape:connector-curvature="0"
       id="path4263"
       d="m -523.69237,46.227383 -9.16538,-25.833734 0.0112,-6.41846 c 0.0164,-8.9380804 5.36809,-18.0430904 14.06104,-23.9222704 11.6327,-7.8673596 36.45053,-13.8009396 53.88224,-12.8824396 l 7.33048,0.38623 -22.78277,24.3749996 c -12.53051,13.4062504 -23.42276,24.9962804 -24.205,25.7556204 -15.29933,17.951128 -19.04869,18.682827 -19.13181,18.540054 z"
       style="fill:#000000;fill-opacity:1" />
    <path
       id="path4261"
       d="m -979.49573,-152.60075 c -0.7569,-13.20724 -4.8709,-34.16194 -8.9036,-45.35004 -1.0918,-3.02912 -1.8291,-5.66353 -1.6384,-5.85423 0.1907,-0.19071 6.5248,0.76285 14.0758,2.11901 14.6351,2.62847 66.0018,4.75934 74.8254,3.10403 3.8184,-0.71635 5.8981,-2.49665 12.25027,-10.48708 14.33217,-18.02835 43.30989,-62.95679 81.46925,-126.31383 l 18.33348,-30.43959 -5.10829,-3.70043 c -5.17801,-3.75093 -8.68847,-9.87409 -8.6385,-15.06776 0.0535,-5.55629 5.09511,-13.89376 13.21715,-21.85746 4.52448,-4.43627 8.42788,-7.86438 8.67424,-7.61803 0.24635,0.24636 -0.63305,10.83728 -1.95424,23.53538 -1.32119,12.6981 -2.41621,23.82379 -2.43337,24.72374 -0.0171,0.89995 -0.56748,1.30485 -1.22289,0.89977 -0.65541,-0.40506 -1.82965,1.67111 -2.6094,4.61374 -24.51318,92.50688 -55.61829,179.85669 -73.67349,206.89085 -9.48287,14.19877 -5.12874,13.26174 -64.44211,13.86835 l -51.4425,0.52612 -0.7788,-13.59254 z"
       style="fill:#000000"
       inkscape:connector-curvature="0" />
    <path
       id="path4259"
       d="m -697.85776,-177.27607 c -24.89749,-7.49927 -44.4963,-23.98735 -55.17459,-46.41724 -6.71399,-14.10281 -8.71435,-22.7844 -8.78458,-38.125 -0.0747,-16.33127 2.37613,-27.24318 9.26498,-41.25 4.19292,-8.52531 7.45805,-12.87658 16.5224,-22.01854 9.65804,-9.74078 13.01941,-12.22895 23.17179,-17.15239 26.39211,-12.79898 53.38173,-12.79173 79.93914,0.0215 22.25728,10.73852 40.04597,32.7789 46.35027,57.42848 3.00131,11.73502 3.2567,31.31224 0.55782,42.7605 -7.3689,31.25783 -32.87944,57.32219 -63.85908,65.24546 -13.88219,3.55046 -35.29468,3.33058 -47.98815,-0.49277 z"
       style="fill:#000000"
       inkscape:connector-curvature="0" />
    <path
       id="path4255"
       d="m -1101.7546,-265.37702 c -25.8468,-8.53318 -53.1728,-36.91284 -65.1782,-67.6913 -16.4,-42.04519 4.5321,-88.54894 45.2394,-100.50578 10.4049,-3.05621 29.887,-2.63663 40.1579,0.86487 23.3451,7.95865 43.0916,28.98954 49.4904,52.70955 7.0147,26.00286 3.0548,61.28856 -9.6085,85.61969 -6.6484,12.77418 -14.2951,21.19404 -23.9128,26.33053 -6.9103,3.69056 -9.2666,4.27631 -18.5414,4.60925 -7.8172,0.28061 -12.4805,-0.2312 -17.6468,-1.93681 z"
       style="fill:#000000"
       inkscape:connector-curvature="0" />
  </g>
  <g
     id="g4344-5"
     transform="matrix(0.48740046,0,0,0.48740046,-411.97852,251.88646)">
    <path
       inkscape:connector-curvature="0"
       id="path4160-6"
       style="fill:#f1495f;fill-opacity:1;fill-rule:nonzero;stroke:none"
       d="m 1025.0354,-375.64447 c 0,-6.75401 -5.4278,-12.22947 -12.1222,-12.22947 -6.696,0 -12.1239,5.47546 -12.1239,12.22947 0,6.75237 5.4279,12.22715 12.1239,12.22715 6.6944,0 12.1222,-5.47478 12.1222,-12.22715" />
    <path
       inkscape:connector-curvature="0"
       id="path4164-2"
       style="fill:none;stroke:#f14e55;stroke-width:4.10362005;stroke-linecap:butt;stroke-linejoin:miter;stroke-miterlimit:10;stroke-dasharray:none;stroke-opacity:1"
       d="m 1031.4306,-375.64447 c 0,-10.31718 -8.291,-18.67995 -18.5173,-18.67995 -10.228,0 -18.51967,8.36277 -18.51967,18.67995 0,10.31486 8.29167,18.67763 18.51967,18.67763 10.2263,0 18.5173,-8.36277 18.5173,-18.67763 z" />
    <path
       inkscape:connector-curvature="0"
       id="path4168-9"
       style="fill:none;stroke:#f14e55;stroke-width:2.05181003;stroke-linecap:butt;stroke-linejoin:miter;stroke-miterlimit:10;stroke-dasharray:none;stroke-opacity:1"
       d="m 1038.902,-375.64447 c 0,-14.47976 -11.6369,-26.21557 -25.9888,-26.21557 -14.35528,0 -25.99041,11.73581 -25.99041,26.21557 0,14.47785 11.63513,26.21311 25.99041,26.21311 14.3519,0 25.9888,-11.73526 25.9888,-26.21311 z" />
  </g>
  <g
     transform="matrix(0.26385095,0,0,0.26385095,-145.42422,173.08759)"
     id="g4301">
    <path
       d="m 1025.0354,-375.64447 c 0,-6.75401 -5.4278,-12.22947 -12.1222,-12.22947 -6.696,0 -12.1239,5.47546 -12.1239,12.22947 0,6.75237 5.4279,12.22715 12.1239,12.22715 6.6944,0 12.1222,-5.47478 12.1222,-12.22715"
       style="fill:#f1495f;fill-opacity:1;fill-rule:nonzero;stroke:none"
       id="path4303"
       inkscape:connector-curvature="0" />
    <path
       d="m 1031.4306,-375.64447 c 0,-10.31718 -8.291,-18.67995 -18.5173,-18.67995 -10.228,0 -18.51967,8.36277 -18.51967,18.67995 0,10.31486 8.29167,18.67763 18.51967,18.67763 10.2263,0 18.5173,-8.36277 18.5173,-18.67763 z"
       style="fill:none;stroke:#f14e55;stroke-width:4.10362005;stroke-linecap:butt;stroke-linejoin:miter;stroke-miterlimit:10;stroke-dasharray:none;stroke-opacity:1"
       id="path4305"
       inkscape:connector-curvature="0" />
    <path
       d="m 1038.902,-375.64447 c 0,-14.47976 -11.6369,-26.21557 -25.9888,-26.21557 -14.35528,0 -25.99041,11.73581 -25.99041,26.21557 0,14.47785 11.63513,26.21311 25.99041,26.21311 14.3519,0 25.9888,-11.73526 25.9888,-26.21311 z"
       style="fill:none;stroke:#f14e55;stroke-width:2.05181003;stroke-linecap:butt;stroke-linejoin:miter;stroke-miterlimit:10;stroke-dasharray:none;stroke-opacity:1"
       id="path4307"
       inkscape:connector-curvature="0" />
  </g>
</svg>
